<?xml version="1.0"?>
<svg xmlns="http://www.w3.org/2000/svg" xmlns:xlink="http://www.w3.org/1999/xlink" width="46" height="44" viewBox="0 0 46 44">
  <g>
    <g transform="translate(-155 -49)">
      <image width="46" height="44" transform="translate(155 49)"/>
    </g>
  </g>
</svg>
